%YAML 1.1
%TAG !u! tag:unity3d.com,2011:
--- !u!114 &11400000
MonoBehaviour:
  m_ObjectHideFlags: 0
  m_CorrespondingSourceObject: {fileID: 0}
  m_PrefabInstance: {fileID: 0}
  m_PrefabAsset: {fileID: 0}
  m_GameObject: {fileID: 0}
  m_Enabled: 1
  m_EditorHideFlags: 0
  m_Script: {fileID: 11500000, guid: d62549fa9024d1d48b6a7f29407f2343, type: 3}
  m_Name: Palasma
  m_EditorClassIdentifier: 
  gunSprite: {fileID: 21300000, guid: 143e670f2c8712f4e9e485a169805ed0, type: 3}
  gunName: Palasma Gun
  gunDmg: 105
  gunDispersion: 85
  gunFOR: 680
  gunReloadSpeed: 90
  gunAmmunitio: 180
  yellowNum: 200
  greenNum: 2
  use: 0
  rentOut: 1
  upgrade: 1
